<svg width="102" height="22" viewBox="0 0 205 44" fill="none" xmlns="http://www.w3.org/2000/svg">
<path d="M120.642 0.0616507C120.453 0.327517 119.601 1.39741 117.8 1.90602C117.567 1.97152 117.303 2.0229 117.016 2.06914C116.939 2.0807 116.86 2.09226 116.779 2.10382C116.704 2.11409 116.629 2.12437 116.55 2.13464C116.459 2.1462 116.365 2.15776 116.269 2.16803C116.201 2.17574 116.131 2.18345 116.061 2.19115C115.947 2.20271 115.831 2.21556 115.711 2.22712C115.687 2.2284 115.661 2.23097 115.637 2.23354C114.947 2.30033 114.184 2.36454 113.375 2.46216C113.332 2.46729 113.287 2.47372 113.243 2.47885C113.071 2.50069 112.899 2.52381 112.723 2.54821C112.647 2.55977 112.57 2.57261 112.493 2.58417C112.346 2.60601 112.2 2.62913 112.052 2.65482C111.961 2.67023 111.871 2.68692 111.78 2.70362C111.643 2.72931 111.505 2.755 111.368 2.78325C111.269 2.8038 111.171 2.82435 111.072 2.84619C110.939 2.87701 110.804 2.90784 110.669 2.94123C110.569 2.96563 110.469 2.99132 110.367 3.01701C110.232 3.05297 110.097 3.0915 109.963 3.13132C109.861 3.16086 109.76 3.1904 109.659 3.22251C109.521 3.26618 109.383 3.3137 109.246 3.36122C109.148 3.3959 109.051 3.42801 108.953 3.46398C108.803 3.52049 108.654 3.58214 108.505 3.64379C108.42 3.67847 108.335 3.71058 108.251 3.74782C108.035 3.84287 107.819 3.94433 107.604 4.05351C107.589 4.06121 107.572 4.06763 107.557 4.07534C103.694 6.06099 103.561 9.63414 103.799 10.8248C103.834 10.9982 103.896 11.1459 103.971 11.2807C103.989 11.3141 104.011 11.3424 104.031 11.3732C104.093 11.4682 104.158 11.5556 104.232 11.6314C104.245 11.6442 104.252 11.6609 104.264 11.6725C104.264 11.6686 104.264 11.6647 104.263 11.6609C104.74 12.1297 105.388 12.2543 105.388 12.2543C105.388 12.2543 105.219 12.9478 105.705 13.5592V13.5643C105.718 13.5798 105.734 13.5952 105.749 13.6119C105.774 13.6414 105.801 13.6722 105.831 13.7018C105.862 13.7326 105.896 13.7609 105.931 13.7904C105.962 13.8174 105.99 13.8443 106.025 13.87C106.091 13.9201 106.166 13.9689 106.248 14.0152C106.284 14.0357 106.328 14.055 106.368 14.0742C106.423 14.1025 106.478 14.1295 106.54 14.1539C106.586 14.1731 106.637 14.1911 106.687 14.2091C106.753 14.2322 106.82 14.2541 106.89 14.2733C106.946 14.29 107.001 14.3041 107.059 14.3183C107.142 14.3375 107.229 14.3542 107.321 14.3709C107.376 14.3799 107.43 14.3915 107.489 14.3992C107.64 14.421 107.801 14.439 107.974 14.4493C107.977 14.4493 107.979 14.4493 107.981 14.4506H107.982C118.965 14.2862 120.685 0 120.685 0C120.685 0 120.665 0.0282568 120.642 0.0616507Z" fill="#8FAAB8"/>
<path d="M113.864 6.54639C113.864 6.54639 108.903 8.95364 106.398 11.3633C103.89 13.772 103.977 16.8696 103.977 16.8696C103.977 16.8696 102.909 13.1846 105.229 10.9552C107.551 8.72578 113.864 6.54639 113.864 6.54639Z" fill="#8FAAB8"/>
<path d="M100.714 8.7482C100.707 8.74435 100.698 8.74178 100.69 8.73793C100.383 8.58123 100.074 8.44766 99.7615 8.33206C99.6485 8.28968 99.5354 8.25885 99.4224 8.22161C99.2143 8.15353 99.0063 8.08418 98.7982 8.02895C98.6659 7.99427 98.5375 7.9673 98.4078 7.93776C98.2177 7.89409 98.0301 7.8517 97.8426 7.81703C97.7065 7.79134 97.5755 7.77079 97.4406 7.75024C97.2621 7.72198 97.0861 7.69501 96.9114 7.67189C96.7766 7.65519 96.6469 7.6385 96.5159 7.62437C96.336 7.60382 96.1639 7.58584 95.9931 7.56914C95.7966 7.54987 95.6129 7.53061 95.4306 7.51391C95.2777 7.49978 95.1326 7.48566 94.99 7.47024C94.841 7.45483 94.7075 7.43813 94.5713 7.42015C94.475 7.40859 94.3774 7.39703 94.2887 7.38291C94.0884 7.3508 93.9009 7.31612 93.739 7.26988C92.5137 6.92438 91.9319 6.19485 91.8035 6.01376C91.7958 6.00477 91.7945 6.0022 91.7906 5.99578C91.7842 5.98678 91.7739 5.97266 91.7739 5.97266H91.7752H91.7739C91.7752 5.97651 92.9478 15.6993 100.423 15.8123H100.426C100.623 15.8007 100.793 15.775 100.95 15.7442C100.977 15.7378 101.005 15.7339 101.03 15.7275C101.176 15.6941 101.305 15.6543 101.417 15.6068C101.435 15.5991 101.452 15.5914 101.468 15.5824C101.576 15.5336 101.673 15.4796 101.751 15.4218C101.754 15.4206 101.756 15.4193 101.759 15.4167C101.842 15.3551 101.906 15.2883 101.963 15.2215C101.967 15.2163 101.972 15.2125 101.976 15.2086V15.2061C102.306 14.7899 102.192 14.3173 102.192 14.3173C102.192 14.3173 102.632 14.2338 102.957 13.914C102.957 13.9165 102.957 13.9191 102.956 13.9217C102.963 13.914 102.969 13.9037 102.976 13.896C103.028 13.8433 103.073 13.7843 103.115 13.7188C103.129 13.6969 103.145 13.6777 103.156 13.6545C103.207 13.5621 103.25 13.4619 103.273 13.3437C103.436 12.5333 103.345 10.1007 100.714 8.7482Z" fill="#8FAAB8"/>
<path d="M96.7183 10.9414C96.7183 10.9414 99.3048 12.0291 101.068 13.4603C102.832 14.8896 102.849 16.8459 102.849 16.8459C102.849 16.8459 103.487 14.5203 101.853 13.1957C100.219 11.8721 96.7183 10.9414 96.7183 10.9414Z" fill="#8FAAB8"/>
<path d="M120.684 0C120.684 0 119.864 1.32291 117.799 1.90602C115.735 2.48785 111.421 2.09097 107.558 4.07534C103.693 6.06099 103.561 9.63414 103.799 10.8248C104.037 12.0154 105.387 12.253 105.387 12.253C105.387 12.253 104.883 14.2656 107.981 14.4506C118.964 13.4719 120.684 0 120.684 0Z" fill="#8CC63F"/>
<path d="M107.557 4.07566C103.688 6.05667 103.568 9.63053 103.795 10.8218C103.876 11.1832 104.05 11.4643 104.264 11.6785C104.05 10.1526 104.304 7.10072 107.436 5.05278C110.916 2.77729 115.012 2.75052 117.114 2.05449C114.878 2.42928 111.037 2.29543 107.557 4.07566Z" fill="url(#paint0_linear)"/>
<path d="M113.864 6.54639C113.864 6.54639 108.903 8.95364 106.398 11.3633C103.89 13.772 103.977 16.8696 103.977 16.8696C103.977 16.8696 102.909 13.1846 105.229 10.9552C107.551 8.72578 113.864 6.54639 113.864 6.54639Z" fill="#593F16"/>
<path d="M91.7739 5.97266C91.7739 5.97266 92.3326 6.87429 93.739 7.27117C95.1441 7.66675 98.0815 7.39703 100.714 8.7482C103.345 10.1007 103.435 12.5333 103.273 13.3437C103.11 14.1554 102.192 14.3173 102.192 14.3173C102.192 14.3173 102.533 15.6864 100.426 15.8136C92.9466 15.1457 91.7739 5.97266 91.7739 5.97266Z" fill="#8CC63F"/>
<path d="M100.792 9.41143C102.924 10.8059 103.097 12.893 102.952 13.9229C103.097 13.777 103.216 13.5947 103.271 13.3396C103.426 12.5284 103.343 10.095 100.71 8.7461C98.3399 7.53394 95.7242 7.62508 94.2021 7.36989C95.633 7.84382 98.4219 7.86205 100.792 9.41143Z" fill="url(#paint1_linear)"/>
<path d="M100.425 15.8069C101.292 15.7559 101.741 15.5008 101.976 15.205C101.976 15.154 101.965 15.0928 101.965 15.0316C101.639 15.052 101.282 15.0724 100.976 15.103C94.1815 14.8989 92.131 7.43124 91.8045 6.0234C91.7841 5.9928 91.7739 5.97239 91.7739 5.97239C91.7739 5.97239 92.9471 15.7049 100.425 15.8069Z" fill="url(#paint2_linear)"/>
<path d="M96.7183 10.9414C96.7183 10.9414 99.3048 12.0291 101.068 13.4603C102.832 14.8896 102.849 16.8459 102.849 16.8459C102.849 16.8459 103.487 14.5203 101.853 13.1957C100.219 11.8721 96.7183 10.9414 96.7183 10.9414Z" fill="#593F16"/>
<path d="M2.24638 25.9256C2.24638 23.5289 1.7596 22.8546 1.38456 22.5181C0.899066 22.1059 0.373755 22.1431 0.373755 21.1708C0.373755 18.3991 9.66111 17.3511 9.7356 17.3511C10.6719 17.3511 10.7464 18.1744 10.7464 18.9604C10.7464 19.4099 10.5961 20.6828 11.3835 20.6828C11.7572 20.6828 12.357 19.8595 13.4051 18.9977C14.4531 18.1744 15.952 17.3511 18.1611 17.3511C22.6167 17.3511 22.6539 20.6828 23.4399 20.6828C23.7405 20.6828 24.4135 19.8595 25.5001 18.9977C26.6226 18.1744 28.1215 17.3511 30.0314 17.3511C33.5878 17.3511 35.7983 19.2982 35.7983 22.9677V30.8692C35.7983 33.0398 37.1828 33.2273 37.1828 34.3139C37.1828 36.6733 32.9135 36.785 31.4532 36.785C30.2176 36.785 25.8738 36.523 25.8738 34.5759C25.8738 33.1901 27.1852 33.2273 27.1852 31.0554V27.6852C27.1852 26.1131 27.3727 22.9677 25.2381 22.9677C23.1407 22.9677 23.3282 25.5133 23.3282 26.8992V29.2213C23.3282 33.8271 24.6755 33.0398 24.6755 34.4256C24.6755 36.7478 20.1828 36.785 18.8342 36.785C13.1803 36.785 12.8811 35.737 12.9183 34.6876C12.9555 32.7033 14.8282 34.2766 14.7151 29.8198V27.6852C14.7151 26.3379 14.9027 22.9677 12.7693 22.9677C10.6719 22.9677 10.8594 25.5133 10.8594 26.8992V29.9329C10.8594 33.3776 11.8702 33.1528 11.8702 34.5001C11.8702 35.475 11.0084 36.785 5.87861 36.785C4.41827 36.785 0 36.8223 0 34.8379C0 33.1528 2.24638 34.0519 2.24638 29.3703V25.9256Z" fill="#231F20"/>
<path d="M57.1447 27.4229C57.1447 34.0131 59.3911 30.4194 59.3911 32.441C59.3911 34.5756 56.4704 36.8965 53.7373 36.8965C50.7793 36.8965 50.7036 34.9866 49.7685 34.9866C49.319 34.9866 48.8322 35.4734 48.0076 35.923C47.1844 36.4097 46.0605 36.8965 44.3382 36.8965C41.23 36.8965 38.123 35.2487 38.123 31.5419C38.123 28.8833 40.6687 25.5875 47.2588 25.5875C48.4199 25.5875 48.944 25.6633 48.944 24.3147C48.944 23.0792 48.9067 20.495 47.1844 20.495C44.938 20.495 44.7132 24.5395 41.3802 24.5395C40.1819 24.5395 39.2828 23.679 39.2828 22.4806C39.2828 19.2967 45.611 17.2378 49.1687 17.2378C51.3034 17.2378 57.1447 18.0624 57.1447 23.679V27.4229ZM45.9115 30.7186C45.9115 31.6922 46.4356 32.7403 47.5209 32.7403C48.944 32.7403 49.057 31.2054 49.057 30.0816C49.057 29.2583 49.0942 28.322 48.0449 28.322C46.7721 28.322 45.9115 29.5203 45.9115 30.7186Z" fill="#231F20"/>
<path d="M72.0334 28.2854C72.0334 30.7938 73.0814 31.3936 74.0922 31.3936C75.2533 31.3936 75.9276 30.5318 76.6019 30.5318C77.3507 30.5318 77.8747 31.5812 77.8747 32.2542C77.8747 34.7266 73.6055 36.8972 69.8243 36.8972C67.9144 36.8972 63.1211 36.0739 63.1211 30.1208V22.4068C63.1211 21.7325 63.1211 21.4705 62.9348 21.3575C62.7473 21.2457 62.335 21.3202 61.4732 21.3202C60.4997 21.3202 60.0129 21.3575 59.8266 21.1712C59.5633 20.9092 59.6391 20.5342 59.6391 19.6724C59.6391 19.1483 59.5261 18.7373 59.9756 18.4381L68.5129 13.0077C69.3747 12.4837 69.3375 12.5954 70.46 12.5954C71.9589 12.5954 72.0334 12.4464 72.0334 14.1688C72.0334 15.3286 71.9589 16.4897 72.1451 16.9392C72.2582 17.2398 72.5202 17.2398 73.4937 17.2398H76.1151C77.7258 17.2398 77.7258 17.3515 77.7258 19.0366C77.7258 21.1712 77.4637 21.3202 76.0021 21.3202H73.4192C72.1079 21.3202 72.0334 21.3575 72.0334 22.7061V28.2854Z" fill="#231F20"/>
<path d="M89.5616 29.4467C89.5616 33.865 91.7707 32.2557 91.7707 34.24C91.7707 36.7857 87.0147 36.7857 85.3296 36.7857C78.8897 36.7857 78.6277 35.3253 78.6277 34.4276C78.6277 33.079 80.1625 33.0045 80.612 31.8434C81.0988 30.532 81.1733 25.103 80.7623 23.7171C80.4245 22.407 78.5146 22.8193 78.5146 21.1342C78.5146 18.4756 88.0268 17.3517 88.4005 17.3517C89.5244 17.3517 89.5616 18.2135 89.5616 18.9996V29.4467ZM82.1469 16.1534C80.5748 16.1534 78.8897 15.4418 78.8897 13.6078C78.8897 11.1366 83.832 10.1245 85.7419 10.1245C87.2394 10.1245 89.3741 10.6113 89.3741 12.4839C89.3741 15.4046 84.2815 16.1534 82.1469 16.1534Z" fill="#231F20"/>
<path d="M124.061 30.1204C124.061 33.7526 125.333 33.1156 125.333 34.5387C125.333 36.8608 120.354 36.7863 118.818 36.7863C117.32 36.7863 113.502 36.7863 113.502 34.5387C113.502 32.7418 115.224 34.3511 115.336 30.6817L115.486 25.0651C115.56 22.2947 113.277 23.1924 113.277 21.2081C113.277 19.2237 121.889 17.3511 122.637 17.3511C123.461 17.3511 123.986 18.0639 123.986 18.8114C123.986 19.0362 123.947 19.2609 123.947 19.4857C123.947 19.9352 124.135 20.4593 124.696 20.4593C125.296 20.4593 125.634 19.6732 126.383 18.8872C127.131 18.1371 128.254 17.3511 130.389 17.3511C138.14 17.3511 136.83 24.9533 137.204 30.6444C137.391 33.6023 138.926 32.928 138.926 34.5387C138.926 35.213 139.076 36.7863 132.037 36.7863C130.688 36.7863 127.093 36.8608 127.093 34.7634C127.093 33.4161 128.33 34.0519 128.516 31.618C128.704 28.9593 129.752 22.969 126.232 22.969C123.836 22.969 124.061 25.5518 124.061 27.237V30.1204Z" fill="#231F20"/>
<path d="M151.187 35.4371C151.187 37.3097 151.224 40.0801 149.988 41.579C148.64 43.2628 145.607 43.9743 143.547 43.9743C141.975 43.9743 139.129 43.3373 139.129 41.3529C139.129 40.7172 139.69 40.1559 140.327 40.1559C140.702 40.1559 141.076 40.2676 141.414 40.2676C142.012 40.2676 142.349 39.7064 142.349 39.1823C142.349 38.3205 142.161 38.508 142.161 37.2352V25.514C142.161 21.919 139.729 23.6799 139.729 21.6582C139.729 18.0992 149.877 17.3504 149.913 17.3504C151.261 17.3504 151.187 18.2495 151.187 19.3361V35.4371ZM143.51 16.1521C141.938 16.1521 140.253 15.4418 140.253 13.6065C140.253 11.1353 145.195 10.1245 147.105 10.1245C148.603 10.1245 150.737 10.6113 150.737 12.4826C150.737 15.4046 145.645 16.1521 143.51 16.1521Z" fill="#231F20"/>
<path d="M173.358 27.4229C173.358 34.0131 175.604 30.4194 175.604 32.441C175.604 34.5756 172.684 36.8965 169.95 36.8965C166.993 36.8965 166.917 34.9866 165.982 34.9866C165.532 34.9866 165.045 35.4734 164.221 35.923C163.398 36.4097 162.274 36.8965 160.551 36.8965C157.443 36.8965 154.335 35.2487 154.335 31.5419C154.335 28.8833 156.882 25.5875 163.472 25.5875C164.633 25.5875 165.157 25.6633 165.157 24.3147C165.157 23.0792 165.12 20.495 163.398 20.495C161.151 20.495 160.926 24.5395 157.593 24.5395C156.395 24.5395 155.496 23.679 155.496 22.4806C155.496 19.2967 161.824 17.2378 165.382 17.2378C167.517 17.2378 173.358 18.0624 173.358 23.679V27.4229ZM162.125 30.7186C162.125 31.6922 162.649 32.7403 163.734 32.7403C165.157 32.7403 165.269 31.2054 165.269 30.0816C165.269 29.2583 165.306 28.322 164.258 28.322C162.985 28.322 162.125 29.5203 162.125 30.7186Z" fill="#231F20"/>
<path d="M189.91 30.6823C189.761 30.4575 188.862 29.1847 188.487 29.1847C188.075 29.1847 188.113 30.008 188.113 30.2328C188 33.5657 189.648 32.4419 189.648 34.2028C189.648 35.2508 189.386 36.7857 183.545 36.7857C180.474 36.7857 176.992 36.8974 176.992 34.4263C176.992 32.6294 178.976 33.9395 179.089 30.7953C179.201 28.1739 179.388 24.6162 179.388 22.9683V17.6137C179.388 14.5813 176.505 16.6029 176.505 14.4683C176.505 11.9599 184.968 10.1245 186.952 10.1245C187.963 10.1245 188.037 10.7243 188 11.5476L187.813 19.4864C187.738 21.883 187.738 22.818 188.637 22.818C189.236 22.818 191.632 21.5452 191.632 20.9839C191.632 20.4599 190.884 20.1594 190.884 19.4106C190.884 17.4635 194.703 17.3517 196.013 17.3517C197.548 17.3517 201.63 17.389 201.63 19.7111C201.63 21.3949 200.245 20.6089 197.999 21.9948C197.624 22.1823 196.164 22.9311 196.164 23.3806C196.164 24.3169 200.545 29.7087 201.256 30.5693C202.941 32.6667 205 32.6294 205 34.2028C205 35.3626 204.14 36.3747 201.256 36.3747H195.976C194.478 36.3747 194.291 36.2989 193.392 35.1378L189.91 30.6823Z" fill="#231F20"/>
<path d="M103.786 17.241C109.402 17.241 112.36 20.3492 112.36 22.9706C112.36 25.0667 110.788 26.6773 108.691 26.6773C104.646 26.6773 106.519 22.0343 103.561 22.0343C101.913 22.0343 101.015 23.7181 101.015 25.217C101.015 27.9887 103.074 30.7963 106.032 30.7963C108.391 30.7963 109.177 29.8228 109.964 29.8228C110.976 29.8228 111.65 30.9453 111.65 31.8444C111.65 34.0535 108.278 36.8997 103.037 36.8997C97.3817 36.8997 92.8145 32.7434 92.8145 27.0138C92.8145 21.622 97.4947 17.241 103.786 17.241Z" fill="#231F20"/>
<defs>
<linearGradient id="paint0_linear" x1="103.728" y1="11.6719" x2="117.114" y2="11.6719" gradientUnits="userSpaceOnUse">
<stop stop-color="#8CC63F"/>
<stop offset="1" stop-color="#CFE28E"/>
</linearGradient>
<linearGradient id="paint1_linear" x1="94.2021" y1="13.9199" x2="103.316" y2="13.9199" gradientUnits="userSpaceOnUse">
<stop stop-color="#CFE28E"/>
<stop offset="1" stop-color="#8CC63F"/>
</linearGradient>
<linearGradient id="paint2_linear" x1="91.7739" y1="15.8116" x2="101.976" y2="15.8116" gradientUnits="userSpaceOnUse">
<stop stop-color="#CFE28E"/>
<stop offset="1" stop-color="#8CC63F"/>
</linearGradient>
</defs>
</svg>
